HW8-Basic Modeling Practice
…
── Conflicts ────────────────────────────────────────── tidyverse_conflicts() ──
✖ dplyr::filter() masks stats::filter()
✖ dplyr::lag()    masks stats::lag()
ℹ Use the conflicted package (<http://conflicted.r-lib.org/>) to force all conflicts to become errors

bike_data|>
  mutate(Holiday=as.factor(Holiday),
         Seasons=factor(Seasons, levels=c("Winter","Spring","Summer","Autumn")),
         Date=dmy(Date),
         `Functioning Day`= as.factor(`Functioning Day`))

# A tibble: 8,760 × 14
   Date       `Rented Bike Count`  Hour `Temperature(°C)` `Humidity(%)`
   <date>                   <dbl> <dbl>             <dbl>         <dbl>
 1 2017-12-01                 254     0              -5.2            37
 2 2017-12-01                 204     1              -5.5            38
 3 2017-12-01                 173     2              -6              39
 4 2017-12-01                 107     3              -6.2            40
 5 2017-12-01                  78     4              -6              36
 6 2017-12-01                 100     5              -6.4            37
 7 2017-12-01                 181     6              -6.6            35
 8 2017-12-01                 460     7              -7.4            38
 9 2017-12-01                 930     8              -7.6            37
10 2017-12-01                 490     9              -6.5            27
# ℹ 8,750 more rows
# ℹ 9 more variables: `Wind speed (m/s)` <dbl>, `Visibility (10m)` <dbl>,
#   `Dew point temperature(°C)` <dbl>, `Solar Radiation (MJ/m2)` <dbl>,
#   `Rainfall(mm)` <dbl>, `Snowfall (cm)` <dbl>, Seasons <fct>, Holiday <fct>,
#   `Functioning Day` <fct>
…
# A tibble: 2 × 4
  .metric .estimator .estimate .config        
  <chr>   <chr>          <dbl> <chr>          
1 rmse    standard    5667.    pre0_mod0_post0
2 rsq     standard       0.701 pre0_mod0_post0

# Coefficient table from the final model
final_coefs <- final_res |>
  extract_workflow() |>
  extract_fit_parsnip() |>
  tidy()

final_coefs

# A tibble: 30 × 5
   term               estimate std.error statistic   p.value
   <chr>                 <dbl>     <dbl>     <dbl>     <dbl>
 1 (Intercept)         16977.       301.    56.5   4.89e-145
 2 TotalRainfall        -976.      1338.    -0.730 4.66e-  1
 3 TotalSnowfall         -52.6      328.    -0.161 8.73e-  1
 4 MeanTemp            -2958.      5764.    -0.513 6.08e-  1
 5 MeanHumidity        -3336.      2232.    -1.49  1.36e-  1
 6 MeanWindSpeed        -776.       346.    -2.24  2.60e-  2
 7 MeanVisibility        288.       452.     0.637 5.25e-  1
 8 MeanDewPoint         8726.      6845.     1.27  2.04e-  1
 9 MeanSolarRadiation   3095.       567.     5.46  1.13e-  7
10 Seasons_Autumn       2636.       723.     3.64  3.25e-  4
# ℹ 20 more rows
